scRNA-seq initial overview
…
Idents(immune) <- immune$RNA_snn_res.0.1

all.markers <- FindAllMarkers(immune, min.pct = 0.25, only.pos = TRUE)
all.markers %>%
    group_by(cluster) %>%
    top_n(n = 20, wt = avg_log2FC) -> top20
top20

# A tibble: 280 × 7
# Groups:   cluster [14]
       p_val avg_log2FC pct.1 pct.2 p_val_adj cluster gene                     
       <dbl>      <dbl> <dbl> <dbl>     <dbl> <fct>   <chr>                    
 1 0              1.51  0.719 0.781 0         0       ENSG00000169045.HNRNPH1  
 2 2.20e-195      0.969 0.714 0.804 5.92e-191 0       ENSG00000213145.CRIP1    
 3 4.86e-162      1.25  0.455 0.305 1.31e-157 0       ENSG00000204287.HLA-DRA  
 4 2.31e- 66      0.862 0.612 0.799 6.22e- 62 0       ENSG00000231721.LINC-PINT
 5 1.56e- 53      0.858 0.143 0.287 4.20e- 49 0       ENSG00000181467.RAP2B    
 6 2.00e- 51      1.52  0.432 0.452 5.37e- 47 0       ENSG00000223865.HLA-DPB1 
 7 1.77e- 40      0.884 0.162 0.3   4.75e- 36 0       ENSG00000185905.C16orf54 
 8 3.26e- 36      1.04  0.203 0.364 8.78e- 32 0       ENSG00000233276.GPX1     
 9 6.42e- 34      0.927 0.213 0.38  1.73e- 29 0       ENSG00000086062.B4GALT1  
10 4.55e- 32      1.03  0.172 0.303 1.23e- 27 0       ENSG00000080822.CLDND1   
# ℹ 270 more rows
…
Idents(stroma) <- stroma$RNA_snn_res.0.1

all.markers <- FindAllMarkers(stroma, min.pct = 0.25, only.pos = TRUE)
all.markers %>%
    group_by(cluster) %>%
    top_n(n = 20, wt = avg_log2FC) -> top20

top20

# A tibble: 260 × 7
# Groups:   cluster [13]
   p_val avg_log2FC pct.1 pct.2 p_val_adj cluster gene                      
   <dbl>      <dbl> <dbl> <dbl>     <dbl> <fct>   <chr>                     
 1     0       4.44 0.88  0.079         0 0       ENSG00000071991.CDH19     
 2     0       4.29 0.678 0.043         0 0       ENSG00000077498.TYR       
 3     0       4.57 0.624 0.042         0 0       ENSG00000184486.POU3F2    
 4     0       3.95 0.575 0.035         0 0       ENSG00000143341.HMCN1     
 5     0       3.96 0.579 0.048         0 0       ENSG00000253490.LINC02099 
 6     0       4.10 0.462 0.021         0 0       ENSG00000253522.MIR3142HG 
 7     0       3.93 0.433 0.028         0 0       ENSG00000154608.CEP170P1  
 8     0       4.76 0.401 0.009         0 0       ENSG00000259392.AC090877.1
 9     0       3.98 0.401 0.022         0 0       ENSG00000101680.LAMA1     
10     0       3.83 0.414 0.036         0 0       ENSG00000138131.LOXL4     
# ℹ 250 more rows
…
