snRNA-seq immune cell analysis
…
Idents(immune.integrated) <- immune.integrated$RNA_snn_res.0.1
all.markers <- FindAllMarkers(immune.integrated, min.pct = 0.25, only.pos = TRUE)
all.markers %>%
    group_by(cluster) %>%
    top_n(n = 30, wt = avg_log2FC) -> top30

top30

# A tibble: 150 × 7
# Groups:   cluster [5]
   p_val avg_log2FC pct.1 pct.2 p_val_adj cluster gene                      
   <dbl>      <dbl> <dbl> <dbl>     <dbl> <fct>   <chr>                     
 1     0       1.99 0.014 0.873         0 1       ENSG00000181374.CCL13     
 2     0       1.99 0.003 0.816         0 1       ENSG00000138684.IL21      
 3     0       2.18 0.009 0.818         0 1       ENSG00000171804.WDR87     
 4     0       2.22 0.005 0.776         0 1       ENSG00000287001.AC010624.5
 5     0       2.00 0.002 0.773         0 1       ENSG00000250509.AC034213.1
 6     0       1.76 0.003 0.773         0 1       ENSG00000111981.ULBP1     
 7     0       1.73 0.147 0.914         0 1       ENSG00000204389.HSPA1A    
 8     0       1.96 0.006 0.766         0 1       ENSG00000125965.GDF5      
 9     0       1.85 0.002 0.741         0 1       ENSG00000150275.PCDH15    
10     0       1.74 0.007 0.687         0 1       ENSG00000130822.PNCK      
# ℹ 140 more rows
…
